Lab 5
…
latlong <- metstat %>%
  group_by(STATE) %>%
  summarize(
    avglat=mean(lat),
    avglon=mean(lon),
    avgtemp = median(temp,na.rm=TRUE),
avgwindsp = median(wind.sp,na.rm=TRUE),
avgatmpress = median(atm.press,na.rm=TRUE))
  
latlong

# A tibble: 48 × 6
   STATE avglat avglon avgtemp avgwindsp avgatmpress
   <chr>  <dbl>  <dbl>   <dbl>     <dbl>       <dbl>
 1 AL      32.7  -86.6    25.2       1.5       1015.
 2 AR      35.2  -92.6    25.3       2.1       1015.
 3 AZ      33.7 -111.     30.3       3.1       1010.
 4 CA      36.3 -120.     21.7       2.6       1013.
 5 CO      39.1 -106.     20.7       3.1       1013.
 6 CT      41.5  -72.8    21.8       2.1       1015.
 7 DE      39.2  -75.5    24.3       2.6       1016.
 8 FL      28.3  -82.4    27.1       2.6       1015.
 9 GA      32.7  -83.4    25.6       1.5       1015.
10 IA      41.9  -93.4    21         2.6       1015.
# ℹ 38 more rows
…
